SwaggerEntity (Body "`UNKNOWN` ") (SwaggerEntity (Body "`actual` ") (SwaggerEntity (Body "`estimated` ") (SwaggerEntity (Body "`scheduled` ") (SwaggerEntity (Body "`No Recent Info ") (SwaggerEntity (Body "`Diverted` ") (SwaggerEntity (Body "`Cancelled` ") (SwaggerEntity (Body "`Delayed` ") (SwaggerEntity (Body "`Expected` ") (SwaggerEntity (Body "`Arrived` ") (SwaggerEntity (Body "`Landed` ") (SwaggerEntity (Body "`Enroute` ") (SwaggerEntity (Body "`Departed` ") (SwaggerEntity (Body "`Scheduled` ") (SwaggerEntity (Body "`swim` ") (SwaggerEntity (Body "`schedule` ") (SwaggerEntity (Body "`flightview` - real time data comes from [flightview's](http") (SwaggerEntity (Body "`flightview` ") (SwaggerEntity (Body "hourly (boolean, required) ") (SwaggerEntity (Body "precipitation (number, required) ") (SwaggerEntity (Body "temperature(number or array[number], required) ") (SwaggerEntity (Body "summary (string, required) ") (SwaggerEntity (Body "icon (enum[string], optional) ") (SwaggerEntity (Body "`latest") (SwaggerEntity (Body "`departure-airport-constraints` - departure constraints") (SwaggerEntity (Body "`departure") (SwaggerEntity (Body "`arrival-airport-constraints` - arrival volume constraints") (SwaggerEntity (Body "`arrival") (SwaggerEntity (Body "`arrival") (SwaggerEntity (Body "`late") (SwaggerEntity (Body "`flight") (SwaggerEntity (Body "name: `Chicago O'Hare Intl` (string, required) ") (SwaggerEntity (Body "city: `Chicago` (string, required) ") (SwaggerEntity (Body "iata: `ORD`(string, required) ") (SwaggerEntity (Body "connection_time: `40` (number, required) ") (SwaggerEntity (Body "prob_miss: `0.2` (number, required) ") (SwaggerEntity (Body "airport: `ORD` (string, required) ") (SwaggerEntity (Body "`initial") (SwaggerEntity (Body "`delay") (SwaggerEntity (Body "`incoming") (SwaggerEntity (Body "`incoming") (SwaggerEntity (Body "`terminal") (SwaggerEntity (Body "`eta") (SwaggerEntity (Body "destination (WeatherForecast, required) ") (SwaggerEntity (Body "origin (WeatherForecast, required) ") (SwaggerEntity (Body "weather (object, optional) ") (SwaggerEntity (Body "last_updated: `2017") (SwaggerEntity (Body "source: `flightiew` (RealtimeStatusSource, required) ") (SwaggerEntity (Body "airport (string, optional)") (SwaggerEntity (Body "diversion (object, optional)") (SwaggerEntity (Body "cancelled: `false` (boolean, required) ") (SwaggerEntity (Body "baggage_claim: `1` (string, optional) ") (SwaggerEntity (Body "gate: `D09` (string, optional) ") (SwaggerEntity (Body "terminal: `S` (string, optional) ") (SwaggerEntity (Body "type: `scheduled` (StatusType, required) ") (SwaggerEntity (Body "latest: `2017") (SwaggerEntity (Body "scheduled: `2017") (SwaggerEntity (Body "arrival (object, optional)") (SwaggerEntity (Body "gate: `E14` (string, optional) ") (SwaggerEntity (Body "terminal: `2` (string, optional) ") (SwaggerEntity (Body "type: `scheduled` (StatusType, required) ") (SwaggerEntity (Body "latest: `2017") (SwaggerEntity (Body "scheduled: `2017") (SwaggerEntity (Body "departure (object, optional)") (SwaggerEntity (Body "text") (SwaggerEntity (Body "status (object, optional) ") (SwaggerEntity (Body "connections (array[ConnectionInfo], optional) ") (SwaggerEntity (Body "is_override (boolean, required) ") (SwaggerEntity (Body "causes (array[DelayCause], required) ") (SwaggerEntity (Body "risk: `LOW` (FlightsayerRisk, required) ") (SwaggerEntity (Body "3: `0` ") (SwaggerEntity (Body "2: `0.05` ") (SwaggerEntity (Body "1: `0.1` ") (SwaggerEntity (Body "0: `0.85` ") (SwaggerEntity (Body "distribution (array[number], required) - flightsayer's prediction of delay for this flight, consisting of the following four probabilities") (SwaggerEntity (Body "distribution (array[number], required) ") (SwaggerEntity (Body "delay_index: `2` (number, required) ") (SwaggerEntity (Body "prediction (object, required) ") (SwaggerEntity (Body "destination (AirportInfo, required) ") (SwaggerEntity (Body "origin (AirportInfo, required) ") (SwaggerEntity (Body "scheduled_arrival: `2017") (SwaggerEntity (Body "scheduled_departure: `2017") (SwaggerEntity (Body "name: `Delta Air Lines` (string, required) ") (SwaggerEntity (Body "iata: `DL` (string, required) ") (SwaggerEntity (Body "carrier (object, required) ") (SwaggerEntity (Body "number: `2009` (number, required) ") (SwaggerEntity (Body "id: `DL2009ORDATL1705082330` (FlightId, required) ") (SwaggerEntity (Body "flight (object, required) ") (SwaggerEntity (Body "change: `initial") (SwaggerEntity (Body "booking_reference: `78XNKDS` (string, optional) ") (SwaggerEntity (Body "itinerary_id: `2b68dfef") (SwaggerEntity (Body "alert (object, required) ") (SwaggerEntity (Body "updated (timestamp, required) ") (SwaggerEntity (Body "created (timestamp, required) ") (SwaggerEntity (Body "booking_reference (string, optional) ") (SwaggerEntity (Body "target (string, required) ") (SwaggerEntity (Body "flight_ids (array[FlightId], required) ") (SwaggerEntity (Body "itinerary_id (string, required) ") (SwaggerDataStructureHeader TypeDataStructureHeader (SwaggerResponseHeaderHead (TypeResponseHeader (Right "204")) (SwaggerResponse (TypeResponseHeader (Right "200")) [TypeParamSymbolII "itinerary_id: 9bb348b3" "d567-4392-818f-e19b7ad7fbf2 (string, required) - uuid representing an itinerary" False] (SwaggerResponse (TypeResponseHeader (Right "201")) [TypeParamSymbolII "itinerary_id: 9bb348b3" "d567-4392-818f-e19b7ad7fbf2 (string, required) - uuid representing an itinerary" False] (SwaggerEntity (Body "booking_reference (string, optional) ") (SwaggerEntity (Body "target (string, required) ") (SwaggerEntity (Body "flight_ids (array[FlightId], required) ") (SwaggerResponseBody (TypeResponseHeader (Right "200")) [TypeParamSymbolII "results (array[FlightSubscription]) " " an array of FlightSubscription objects" False,TypeParamSymbolII "previous (string, optional) " " url pointing to the previous set of paginated results" False,TypeParamSymbolII "next (string, optional) " " url pointing to the next set of paginated results" False,TypeParamSymbolII "count (number, required) " " number of flights matching the filter" True] (Body "                {                  \"count\": 1,                  \"next\": null,                  \"previous\": null,                  \"results\": [                    {                      \"itinerary_id\": \"9bb348b3-d567-4392-818f-e19b7ad7fbf2\",                      \"flight_ids\": [\"AS22SEAORD1705021910\", \"B6112ORDBOS1705030035\"],                      \"target\": \"http://requestb.in/wr9k2hwr\",                      \"booking_reference\": \"78XNKDS\",                      \"created\": \"2017-05-02T16:26:02.883037\",                      \"updated\": \"2017-05-02T16:26:02.883060\"                    }                  ]                }To subscribe to push notifications for an itinerary, first obtain valid flight IDs for the flight and a target URL. Check out `FlightStatusUpdate` in the `Data Structures` section for information about what the data you will then receive via callback.                Token: thisisasampletoken                 ") (SwaggerFormat TypeFormatHeader (SwaggerEntity (Body "`UNKNOWN` ") (SwaggerEntity (Body "`actual` ") (SwaggerEntity (Body "`estimated` ") (SwaggerEntity (Body "`scheduled` ") (SwaggerEntity (Body "`No Recent Info ") (SwaggerEntity (Body "`Diverted` ") (SwaggerEntity (Body "`Cancelled` ") (SwaggerEntity (Body "`Delayed` ") (SwaggerEntity (Body "`Expected` ") (SwaggerEntity (Body "`Arrived` ") (SwaggerEntity (Body "`Landed` ") (SwaggerEntity (Body "`Enroute` ") (SwaggerEntity (Body "`Departed` ") (SwaggerEntity (Body "`Scheduled` ") (SwaggerEntity (Body "`swim` ") (SwaggerEntity (Body "`schedule` ") (SwaggerEntity (Body "`flightview` - real time data comes from [flightview's](http") (SwaggerEntity (Body "`flightview` ") (SwaggerEntity (Body "hourly (boolean, required) ") (SwaggerEntity (Body "precipitation (number, required) ") (SwaggerEntity (Body "temperature(number or array[number], required) ") (SwaggerEntity (Body "summary (string, required) ") (SwaggerEntity (Body "icon (enum[string], optional) ") (SwaggerEntity (Body "`latest") (SwaggerEntity (Body "`departure-airport-constraints` - departure constraints") (SwaggerEntity (Body "`departure") (SwaggerEntity (Body "`arrival-airport-constraints` - arrival volume constraints") (SwaggerEntity (Body "`arrival") (SwaggerEntity (Body "`arrival") (SwaggerEntity (Body "`late") (SwaggerEntity (Body "`flight") (SwaggerEntity (Body "name (string, required) ") (SwaggerEntity (Body "city (string, required) ") (SwaggerEntity (Body "iata (string, required) ") (SwaggerDataStructureHeader TypeDataStructureHeader (SwaggerResponseBody (TypeResponseHeader (Right "200")) [TypeParamSymbolII "results (array[FlightStatus]) " " an array of Flight Statuses. Returns full information regarding a flight" False,TypeParamSymbolII "previous (string) " " url for previous page of search results" False,TypeParamSymbolII "next (string) " " url for next page of search results" False,TypeParamSymbolII "count (number, required) " " number of flights matching the filter" True] (Body "            {              \"count\": 2672,              \"next\": \"<url to next page>\",              \"previous: null,              \"results\": [                    {                        \"flight\": {                            \"id\": \"AA2586ORDSFO1608292210\",                            \"number\": 2586,                            \"carrier\": {                            \"iata\": \"AA\",                            \"name\": \"American Airlines\"                            },                            \"scheduled_departure\": \"2016-08-29T22:10:00-00:05\",                            \"scheduled_arrival\": \"2016-08-30T02:47:00-00:07\",                            \"origin\": {                            \"iata\": \"ORD\",                            \"city\": \"Chicago\",                            \"name\": \"Chicago O'Hare Intl\"                            },                            \"destination\": {                            \"iata\": \"SFO\",                            \"city\": \"San Francisco\",                            \"name\": \"San Francisco Intl\"                            }                        },                        \"prediction\": {                            \"delay_index\": 3,                            \"distribution\": [0.7, 0.1, 0.1, 0.1],                            \"risk\": \"LOW\",                            \"causes\": [\"arrival-airport-conditions\", \"late-incoming-flight\"],                            \"is_override\": false                        },                        \"status\": {                            \"departure\": {                            \"scheduled\": \"2016-08-29T22:10:00-00:05\",                            \"latest\": \"2016-08-29T22:13:00-00:05\",                            \"type\": \"scheduled\"                            },                            \"arrival\": {                            \"scheduled\": \"2016-08-30T02:47:00-00:07\",                            \"latest\": \"2016-08-30T02:11:19-00:07\",                            \"type\": \"scheduled\"                            },                            \"cancelled\": false,                            \"source\": \"swim\",                            \"last_updated\": \"2016-08-28T22:10:43Z\"                        }                    }                    // and 2671 more flights                ]            }") (SwaggerRequest TypeRequestHeader [TypeParamSymbolII "weather: true (boolean, optional) " " if true, includes weather data in with flight info" False,TypeParamSymbolII "flight_number: 709 (number, optional) " " filters by flight number" False,TypeParamSymbolII "carrier: UA (string, optional) " " filters by carrier IATA code" False,TypeParamSymbolII "changed_before: 2016" "06-24T17:30:00Z (timestamp, optional) - filters flights whose delay predictions were changed before the specified time (exclusive)" False,TypeParamSymbolII "changed_after: 2016" "06-24T17:30:00Z (timestamp, optional) - filters flights whose delay predictions were changed after the specified time (inclusive)" False,TypeParamSymbolII "departing_before: 2016" "06-24T18:30:00Z (timestamp, optional) - filters flights that depart before the specified time(exclusive)" False,TypeParamSymbolII "departing_after: 2016" "06-24T18:30:00Z (timestamp, optional) - filters flights that depart after the specified time (inclusive)" False,TypeParamSymbolII "codeshare: true (boolean, optional) " " include codeshare flights - default is false" False,TypeParamSymbolII "date: 2016" "06-24 (date, optional) - filter flights that depart on this date (departure airport local time)" False,TypeParamSymbolII "nearby: true (string, optional) " " includes nearby airports when `origin` or `destination` filters are specified" False,TypeParamSymbolII "destination: DEN (string, optional) " " filters by arrival airport" False,TypeParamSymbolII "origin: BOS (string, optional) " " filters by departure airport" False] (SwaggerRequestBody TypeRequestHeader [TypeParamSymbolII "flights (array[FlightStatus], required) " " array of alternate flights. Flight status includes weather information, but not inbound flight or historical performance. Contact @diana to change what data is included." True,TypeParamSymbolII "count (number, required) " " number alternates returned" True,TypeParamSymbol "flight_id" " WN55DALHOU1608300100 (FlightId, required)" False,TypeParamSymbolIII "flight_id: WN55DALHOU1608300100 " "FlightId" True] (Body "            {              \"count\": 6,              \"flights\": [                {                  \"flight\": {                    \"id\": \"AA2258DFWIAH1608300120\", ...                    } ...                } ...                ]            }Retrieves flight Ids that match a set of filters.") (SwaggerResponseBody (TypeResponseHeader (Left "400")) [TypeParamSymbolIII "error " "string" True,TypeParamSymbolIII "status_code " "number" True] (Body "            {              \"status_code\": 400              \"error\": \"Bad request: <reason>\"            }Retrieves alternates flights for the specified flight, sorted by increasing departure time. When the delay index is under 5, no alternates are available.  ") (SwaggerResponse (TypeResponseHeader (Right "200")) [TypeParamSymbolII "array[FlightStatus] " " returns flight info for each specified flight." False] (SwaggerRequest TypeRequestHeader [TypeParamSymbolII "inbound: true (boolean, optional) " " set to true to include inbound flight status, if available (default is false)" False,TypeParamSymbolII "history: true (boolean, optional) " " set to true to include historical_performance data (default is false)" False,TypeParamSymbolII "weather: true (boolean, optional) " " set to true to include weather data (default is false)" False,TypeParamSymbolII "flights: `AA3659DFWAEX1610101350,WN1936LASSFO1610131610` (string, required) " " comma separated list of at most 250 FlightIds" True] (SwaggerResponseBody (TypeResponseHeader (Left "404")) [TypeParamSymbolIII "error " "string" True,TypeParamSymbolIII "status_code " "number" True] (Body "            {              \"status_code\": 404,              \"error\": \"The resource was not found\"            }Retrieves flight status including delay prediction for upto 250 specific flights, optionally including historical performance, weather, and inbound flight information.") (SwaggerResponseBody (TypeResponseHeader (Right "200")) [TypeParamSymbolII "inbound (FlightStatus, optional) " " flight status for the incoming flight" False,TypeParamSymbolII "destination (WeatherForecast, required) " " weather forecast at destination airport at time of arrival, or on arrival day (whichever is available)" True,TypeParamSymbolII "origin (WeatherForecast, required) " " weather forecast at origin airport at time of departure, or on departure day (as available)" True,TypeParamSymbolII "weather (object, optional) " " weather information for the origin and destination airports." False,TypeParamSymbolII "last_updated (timestamp, required) " " time at which this real time status was most recently updated" True,TypeParamSymbolII "source (RealtimeStatusSource, required) " " indicates source of the real time data. " True,TypeParamSymbolII "cancelled (boolean, required) " " true if the flight has been cancelled" True,TypeParamSymbol "airport (string, optional)" " IATA airport code for the diversion airport" False,TypeParamSymbol "diversion (object, optional)" " included if this flight has been diverted" False,TypeParamSymbolII "baggage_claim (string, optional) " " baggage claim assignment" False,TypeParamSymbolII "gate (string, optional) " " gate assignment at the arrival airport" False,TypeParamSymbolII "terminal (string, optional) " " terminal assignment at the arrival airport" False,TypeParamSymbolII "type (StatusType, required) " " type of status represented by the latest estimate" True,TypeParamSymbolII "latest (timestamp, required) " " latest available time of arrival" True,TypeParamSymbolII "scheduled(timestamp, required) " " originally scheduled time of arrival" True,TypeParamSymbol "arrival (object, optional)" " arrival status will be available unless flight is cancelled" False,TypeParamSymbolII "gate (string, optional) " " gate assignment at the departure airport" False,TypeParamSymbolII "terminal (string, optional) " " terminal assignment at the departure airport" False,TypeParamSymbolII "type (StatusType, required) " " type of status represented by the latest estimate" True,TypeParamSymbolII "latest (timestamp, required) " " latest available time of departure" True,TypeParamSymbolII "scheduled(timestamp, required) " " originally scheduled time of departure" True,TypeParamSymbol "departure (object, optional)" " departure status will be available unless flight is cancelled" False,TypeParamSymbol "text (FlightStatusText, required)" " description of current status of this flight" True,TypeParamSymbolII "status (object, optional) " " latest real time flight status" False,TypeParamSymbolII "last_updated (timestamp, required) " " time at which arrival delay was last updated." True,TypeParamSymbolII "arrival_delay (array[HistoricalDelayValue], required) " " An array of 60 values representing the historical arrival performance of this flight over the last 60 days. The first value is 60 days ago and the last value in the array is yesterday." True,TypeParamSymbolII "historical_performance (object, optional) " " historical on time data for flights that are similar to this (same airline and flight number, same origin and destination, but the exact schedule departure time may vary by an hour)." False,TypeParamSymbolII "is_override (boolean, required) " " true if the prediction for this flight has delay_index 0 corresponding to a special event. This occurs during extreme events such as airport evacuation or hurricane - see delay_index attribute for more info. Otherwise false." True,TypeParamSymbolII "causes (array[DelayCause], required) " " an array of reasons explaining the cause for the prediction." True,TypeParamSymbolII "risk (FlightsayerRisk, required) " " description of risk represented by delay_index" True,TypeParamSymbolII "3 " " probability of 2+ hours of delay" False,TypeParamSymbolII "2 " " probability of between 60 and 120 minutes of delay" False,TypeParamSymbolII "1 " " probabilitiy of between 30 and 60 minutes of delay" False,TypeParamSymbolII "0 " " probability of less than 30 minutes of delay" False,TypeParamSymbol "distribution (array[number], required) - flightsayer's prediction of delay for this flight, consisting of the following four probabilities" "" True,TypeParamSymbolII "distribution (array[number], required) " " flightsayer's prediction of delay for this flight, consisting of the following four probabilities:" True,TypeParamSymbolII "delay_index (number, required) " "  Value between 0 and 10 representing risk and magnitude of delay, where 10 represents the highest risk of delay. This value is a calculated summary of the delay probability distribution. A value of 1 means that the flight is predicted to be on time, a 10 means a flight is likely to be highly delayed, and values in between indicate increasing levels of delay are predicted. 0 is a special value indicating that either there is not enough historical data for this flight to make a prediction (within 7 days of departure there will always be enough data to make a prediction, so this only applies to farther out predictions) or there is an unusual event that may be affecting the flight. In the latter case, prediction.is_override will be True, and we advise the traveler to check with their airline for further information. Examples of unusual events are an airport evacuation, airline computer glitch, or a hurricane. If the delay index is 0, the `distribution` field should be ignored." True,TypeParamSymbolII "prediction (object, required) " " predicted flight delay information" True,TypeParamSymbolII "destination (AirportInfo, required) " " informnation about the departure airport" True,TypeParamSymbolII "origin (AirportInfo, required) " " information about the origin airport" True,TypeParamSymbolII "scheduled_arrival (timestamp, required) " " scheduled arrival time for this flight" True,TypeParamSymbolII "scheduled_departure (timestamp, required) " " scheduled departure time for this flight" True,TypeParamSymbolII "name (string, required) " " airline name" True,TypeParamSymbolII "iata (string, required) " " the 2-character IATA air carrier code" True,TypeParamSymbolII "carrier (object, required) " " carrier information" True,TypeParamSymbolII "number (number, required) " " flight number for this flight" True,TypeParamSymbolII "id (FlightId, required) " " flight id of this flight" True,TypeParamSymbolII "flight (object, required) " " detailed information for a flight, and uniquely identifies a single leg" True] (Body "            {              \"flight\": {                \"id\": \"VX865DENSFO1704201800\",                \"number\": 865,                \"carrier\": {                  \"iata\": \"VX\",                  \"name\": \"Virgin America\"                },                \"scheduled_departure\": \"2017-04-20T12:00:00-06:00\",                \"scheduled_arrival\": \"2017-04-20T13:40:00-07:00\",                \"origin\": {                  \"iata\": \"DEN\",                  \"city\": \"Denver\",                  \"name\": \"Denver Intl\"                },                \"destination\": {                  \"iata\": \"SFO\",                  \"city\": \"San Francisco\",                  \"name\": \"San Francisco Intl\"                }              },              \"prediction\": {                \"delay_index\": 1,                \"distribution\": [                  0.9,                  0.1,                  0,                  0                ],                \"risk\": \"LOW\",                \"causes\": [                  \"arrival-airport-conditions\"                ],                \"is_override\": false,                \"last_changed\": \"2017-04-20T15:24:37.129Z\"              },              \"historical_performance\": {                \"arrival_delay\": [-19,10002,10002,8,4,21,21,-8,2,8,-15,-5,-16,-14,3,10,29,77,57,-22,-3,-10,-23,-19,-27,-20,17,-15,-13,-10,46,78,16,72,10002,-4,5,-8,-18,-27,8,-8,-2,48,-10,-14,2,37,171,31,10000,23,-4,77,45,-8,-14,-9,22,73],                \"last_updated\": \"2017-04-18T18:00:00Z\"              },              \"status\": {                \"text\": \"Scheduled\",                \"departure\": {                  \"scheduled\": \"2017-04-20T12:00:00-06:00\",                  \"latest\": \"2017-04-20T12:00:00-06:00\",                  \"type\": \"scheduled\",                  \"terminal\": \"A\",                  \"gate\": \"A39\"                },                \"arrival\": {                  \"scheduled\": \"2017-04-20T13:40:00-07:00\",                  \"latest\": \"2017-04-20T13:36:00-07:00\",                  \"type\": \"estimated\",                  \"terminal\": \"2\",                  \"gate\": \"50B\",                  \"baggage_claim\": null                },                \"cancelled\": false,                \"source\": \"flightview\",                \"last_updated\": \"2017-04-20T16:15:00Z\"              },              \"weather\": {                \"origin\": {                  \"icon\": \"partly-cloudy-day\",                  \"summary\": \"Mostly Cloudy\",                  \"temperature\": 62.88,                  \"precipitation\": 0,                  \"hourly\": true                },                \"destination\": {                  \"icon\": \"partly-cloudy-day\",                  \"summary\": \"Partly Cloudy\",                  \"temperature\": 67.36,                  \"precipitation\": 0,                  \"hourly\": true                }              }            }") (SwaggerRequest TypeRequestHeader [TypeParamSymbolII "inbound: true (boolean, optional) " " set to true to include inbound flight status, if available (default is false)" False,TypeParamSymbolII "history: true (boolean, optional) " " set to true to include historical_performance data (default is false)" False,TypeParamSymbolII "weather: true (boolean, optional) " " set to true to include weather data (default is false)" False,TypeParamSymbolII "flight_id: UA576BOSSFO1606092145 (FlightId, required) " " flight id in the form of <IATA carrier code><flight number><departure airport><arrival airport><scheduled departure time as YYMMDDHHMM in UTC time>" True] (SwaggerRoute (TypeRoute " GET `https://api.flightsayer.com/flights/v1/search?departing_after=2016-10-15T14:00Z&departing_before=2016-10-15T15:00Z`") (SwaggerRoute (TypeRoute "GET `https://api.flightsayer.com/flights/v1/search?departing_after=2016-10-15T14:00Z&departing_before=2016-10-15T15:00Z`") (SwaggerRoute (TypeRoute " GET `https://api.flightsayer.com/flights/v1/search?departing_after=2016-10-13T15:00Z&departing_before=2016-10-15T15:00Z&changed_after=2016-10-13T14:00Z`") (SwaggerRoute (TypeRoute "GET `https://api.flightsayer.com/flights/v1/search?departing_after=2016-10-13T15:00Z&departing_before=2016-10-15T15:00Z&changed_after=2016-10-13T14:00Z`") (SwaggerRoute (TypeRoute " GET `https://api.flightsayer.com/flights/v1/alternates/NK942TPAATL1608182310`") (SwaggerRoute (TypeRoute "GET `https://api.flightsayer.com/flights/v1/alternates/NK942TPAATL1608182310`") (SwaggerRoute (TypeRoute " GET `https://api.flightsayer.com/flights/v1/status?flights=AA3659DFWAEX1610101350,WN1936LASSFO1610131610`") (SwaggerRoute (TypeRoute "GET `https://api.flightsayer.com/flights/v1/status?flights=AA3659DFWAEX1610101350,WN1936LASSFO1610131610`") (SwaggerRoute (TypeRoute " GET `https://api.flightsayer.com/flights/v1/status/WN55DALHOU1608310100?history=true&inbound=true`") (SwaggerRoute (TypeRoute "GET `https://api.flightsayer.com/flights/v1/status/WN55DALHOU1608310100?history=true&inbound=true`") (SwaggerFormat TypeFormatHeader NoSpec)))))))))))))))))))))))))))))))))))))))))))))))))))))))))))))))))))))))))))))))))))))))))))))))))))))))))))))))))))))))))))))))))))))))))))))))))))))))))))))))))
